{
  "notes": [
    {
      "id": 1,
      "title": "Project Review Meeting",
      "description": "Need to attend Project Review Meeting with Project manager",
      "createdBy": "Madhu Samala",
      "createdOn": "30-08-2020",
      "category": "meeting",
      "priority": true
    },
    {
      "id": 2,
      "title": "Unit Testing for NotesModule",
      "description": "Need to start writing unit tests for NotesModule",
      "createdBy": "Madhu Samala",
      "createdOn": "29-08-2020",
      "category": "product",
      "priority": true
    },
    {
      "id": 4,
      "title": "Designing Thinking & Architecture meeting  ",
      "description": "Need to attend Design Thinking and architecture meeting",
      "createdBy": "Madhu Samala",
      "createdOn": "27-08-2020",
      "category": "meeting",
      "priority": false
    },
    {
      "id": 5,
      "title": "Product peer review",
      "description": "Peer review is to be completed by next week",
      "createdBy": "Madhu Samala",
      "createdOn": "26-08-2020",
      "category": "product",
      "priority": true
    },
    {
      "title": "test title",
      "description": "test description",
      "createdBy": "Madhu Samala",
      "createdOn": "30-08-2020",
      "category": "product",
      "priority": false,
      "id": 6
    }
  ],

  "categories":[
      {
          "id":1,
          "name":"meeting",
          "description":"meeting category"
      },
      {
        "id":2,
        "name":"product",
        "description":"product category"  
      }
  ]
}